<svg width="17" height="10" viewBox="0 0 17 10" fill="none" xmlns="http://www.w3.org/2000/svg">
    <rect x="8.48535" y="9.89954" width="2" height="12" transform="rotate(-135 8.48535 9.89954)" fill="#DFA656"/>
    <rect x="9.89941" y="8.48535" width="2" height="12" transform="rotate(135 9.89941 8.48535)" fill="#DFA656"/>
</svg>
