<svg width="25" height="25" viewBox="0 0 25 25" fill="none" xmlns="http://www.w3.org/2000/svg">
    <rect x="0.5" y="0.5" width="24" height="24" rx="2.5" stroke="#DFA656"/>
    <path fill-rule="evenodd" clip-rule="evenodd" d="M18.8823 7.34595C19.7422 7.57214 20.4192 8.23803 20.6489 9.08381C20.996 10.3588 21 12.8928 21 13C21 13.1072 20.996 15.6412 20.6488 16.9166C20.4192 17.762 19.7422 18.4279 18.882 18.6542C17.6073 18.9902 13.0191 19 12.5 19C11.9809 19 7.39268 18.9902 6.11774 18.6541C5.25783 18.4279 4.5808 17.762 4.3511 16.9162C4.00402 15.6412 4 13.1072 4 13C4 12.8928 4.00402 10.3588 4.35123 9.08343C4.5808 8.23803 5.25783 7.57214 6.118 7.34582C7.39268 7.00977 11.9809 7 12.5 7C13.0191 7 17.6073 7.00977 18.8823 7.34595ZM16 13.0001L10 16V10L16 13.0001Z" fill="#DFA656"/>
</svg>
