<svg width="55" height="55" viewBox="0 0 55 55" fill="none" xmlns="http://www.w3.org/2000/svg">
    <circle cx="27.5" cy="27.5" r="26" stroke="white" stroke-width="3"/>
    <path fill-rule="evenodd" clip-rule="evenodd" d="M27.1519 48.035C15.9697 47.8492 6.96203 38.7265 6.96203 27.5C6.96203 27.3837 6.96299 27.2677 6.96492 27.1519H0.00215802C0.000720748 27.2677 0 27.3838 0 27.5C0 42.5716 12.1245 54.8114 27.1519 54.9978V48.035Z" fill="#DFA656"/>
</svg>
